Library\Bee\artifacts\movedfrom\Unity.PlasticSCM.Editor.ref.dll_2700729535869450326.movedfrom
Library\Bee\artifacts\movedfrom\Unity.Rider.Editor.ref.dll_11193012430168537007.movedfrom
Library\Bee\artifacts\movedfrom\Unity.TextMeshPro.Editor.ref.dll_1557689244747631494.movedfrom
Library\Bee\artifacts\movedfrom\Unity.TextMeshPro.ref.dll_9557809654341403355.movedfrom
Library\Bee\artifacts\movedfrom\Unity.Timeline.Editor.ref.dll_953984715949700626.movedfrom
Library\Bee\artifacts\movedfrom\Unity.Timeline.ref.dll_7069769579887910799.movedfrom
Library\Bee\artifacts\movedfrom\Unity.VSCode.Editor.ref.dll_3902429132378491929.movedfrom
Library\Bee\artifacts\movedfrom\Unity.VisualScripting.Core.Editor.ref.dll_17134060296949054973.movedfrom
Library\Bee\artifacts\movedfrom\Unity.VisualScripting.Core.ref.dll_15518829177300997364.movedfrom
Library\Bee\artifacts\movedfrom\Unity.VisualScripting.Flow.Editor.ref.dll_7708282115428993342.movedfrom
Library\Bee\artifacts\movedfrom\Unity.VisualScripting.Flow.ref.dll_2192924542065166755.movedfrom
Library\Bee\artifacts\movedfrom\Unity.VisualScripting.State.Editor.ref.dll_16156761413022531439.movedfrom
Library\Bee\artifacts\movedfrom\Unity.VisualScripting.State.ref.dll_15643080368937755746.movedfrom
Library\Bee\artifacts\movedfrom\Unity.VisualStudio.Editor.ref.dll_4221946230532187309.movedfrom
Library\Bee\artifacts\movedfrom\UnityEditor.UI.ref.dll_5519394401220875509.movedfrom
Library\Bee\artifacts\movedfrom\UnityEngine.UI.ref.dll_648142665722821984.movedfrom
Library\Bee\artifacts\movedfrom\Unity.VisualScripting.Antlr3.Runtime.dll_12416444046882757669.movedfrom
Library\Bee\artifacts\movedfrom\UnityEditor.CoreModule.dll_11620120372269933528.movedfrom
Library\Bee\artifacts\movedfrom\UnityEditor.DeviceSimulatorModule.dll_10837318524132825449.movedfrom
Library\Bee\artifacts\movedfrom\UnityEditor.dll_3911162105664405053.movedfrom
Library\Bee\artifacts\movedfrom\UnityEditor.GraphViewModule.dll_11926605325108044910.movedfrom
Library\Bee\artifacts\movedfrom\UnityEditor.PackageManagerUIModule.dll_15946142473634853684.movedfrom
Library\Bee\artifacts\movedfrom\UnityEditor.QuickSearchModule.dll_840144210848630224.movedfrom
Library\Bee\artifacts\movedfrom\UnityEditor.SceneTemplateModule.dll_3751549853050265169.movedfrom
Library\Bee\artifacts\movedfrom\UnityEditor.UIBuilderModule.dll_18017914158822022562.movedfrom
Library\Bee\artifacts\movedfrom\UnityEditor.UIElementsModule.dll_18027450381891310612.movedfrom
Library\Bee\artifacts\movedfrom\UnityEditor.UIElementsSamplesModule.dll_7169282012450056857.movedfrom
Library\Bee\artifacts\movedfrom\UnityEditor.UIServiceModule.dll_3674531412117597628.movedfrom
Library\Bee\artifacts\movedfrom\UnityEditor.UnityConnectModule.dll_605419380126023310.movedfrom
Library\Bee\artifacts\movedfrom\UnityEngine.AccessibilityModule.dll_7400991222395897326.movedfrom
Library\Bee\artifacts\movedfrom\UnityEngine.AIModule.dll_5171977467813275436.movedfrom
Library\Bee\artifacts\movedfrom\UnityEngine.AndroidJNIModule.dll_8680485349446386410.movedfrom
Library\Bee\artifacts\movedfrom\UnityEngine.AnimationModule.dll_8361298310018218260.movedfrom
Library\Bee\artifacts\movedfrom\UnityEngine.ARModule.dll_88193056703186421.movedfrom
Library\Bee\artifacts\movedfrom\UnityEngine.AssetBundleModule.dll_5733642693282790082.movedfrom
Library\Bee\artifacts\movedfrom\UnityEngine.AudioModule.dll_7547879512915883270.movedfrom
Library\Bee\artifacts\movedfrom\UnityEngine.ClothModule.dll_14963158531852309482.movedfrom
Library\Bee\artifacts\movedfrom\UnityEngine.ClusterInputModule.dll_9800772655342965076.movedfrom
Library\Bee\artifacts\movedfrom\UnityEngine.ClusterRendererModule.dll_11246233982778320621.movedfrom
Library\Bee\artifacts\movedfrom\UnityEngine.CoreModule.dll_14151375714811858691.movedfrom
Library\Bee\artifacts\movedfrom\UnityEngine.CrashReportingModule.dll_11798505894169141883.movedfrom
Library\Bee\artifacts\movedfrom\UnityEngine.DirectorModule.dll_431461431882401248.movedfrom
Library\Bee\artifacts\movedfrom\UnityEngine.dll_7560281598852860706.movedfrom
Library\Bee\artifacts\movedfrom\UnityEngine.DSPGraphModule.dll_814655980704012033.movedfrom
Library\Bee\artifacts\movedfrom\UnityEngine.GameCenterModule.dll_11728659351101830107.movedfrom
Library\Bee\artifacts\movedfrom\UnityEngine.GIModule.dll_16141700582976294726.movedfrom
Library\Bee\artifacts\movedfrom\UnityEngine.GridModule.dll_11661197305277048058.movedfrom
Library\Bee\artifacts\movedfrom\UnityEngine.HotReloadModule.dll_17677203071595762838.movedfrom
Library\Bee\artifacts\movedfrom\UnityEngine.ImageConversionModule.dll_577766875053842145.movedfrom
Library\Bee\artifacts\movedfrom\UnityEngine.IMGUIModule.dll_11610020165587978471.movedfrom
Library\Bee\artifacts\movedfrom\UnityEngine.InputLegacyModule.dll_16201445420387545267.movedfrom
Library\Bee\artifacts\movedfrom\UnityEngine.InputModule.dll_14930906237771241898.movedfrom
Library\Bee\artifacts\movedfrom\UnityEngine.JSONSerializeModule.dll_14325145065279481464.movedfrom
Library\Bee\artifacts\movedfrom\UnityEngine.LocalizationModule.dll_14289958040002118733.movedfrom
Library\Bee\artifacts\movedfrom\UnityEngine.ParticleSystemModule.dll_17784433341510938121.movedfrom
Library\Bee\artifacts\movedfrom\UnityEngine.PerformanceReportingModule.dll_16886848108343109314.movedfrom
Library\Bee\artifacts\movedfrom\UnityEngine.Physics2DModule.dll_13884382644830122153.movedfrom
Library\Bee\artifacts\movedfrom\UnityEngine.PhysicsModule.dll_5222206441418775703.movedfrom
Library\Bee\artifacts\movedfrom\UnityEngine.ProfilerModule.dll_4054107288812342509.movedfrom
Library\Bee\artifacts\movedfrom\UnityEngine.RuntimeInitializeOnLoadManagerInitializerModule.dll_14116959320463831922.movedfrom
Library\Bee\artifacts\movedfrom\UnityEngine.ScreenCaptureModule.dll_16191796422932730586.movedfrom
Library\Bee\artifacts\movedfrom\UnityEngine.SharedInternalsModule.dll_10094223449212869169.movedfrom
Library\Bee\artifacts\movedfrom\UnityEngine.SpriteMaskModule.dll_10083845550566574421.movedfrom
Library\Bee\artifacts\movedfrom\UnityEngine.SpriteShapeModule.dll_7562435484589535948.movedfrom
Library\Bee\artifacts\movedfrom\UnityEngine.StreamingModule.dll_2926840388876333138.movedfrom
Library\Bee\artifacts\movedfrom\UnityEngine.SubstanceModule.dll_380921529557347936.movedfrom
Library\Bee\artifacts\movedfrom\UnityEngine.SubsystemsModule.dll_17770758259816558952.movedfrom
Library\Bee\artifacts\movedfrom\UnityEngine.TerrainModule.dll_7115542850737284485.movedfrom
Library\Bee\artifacts\movedfrom\UnityEngine.TerrainPhysicsModule.dll_17818958913285023894.movedfrom
Library\Bee\artifacts\movedfrom\UnityEngine.TextCoreModule.dll_11436803075460838896.movedfrom
Library\Bee\artifacts\movedfrom\UnityEngine.TextRenderingModule.dll_717272018660102863.movedfrom
Library\Bee\artifacts\movedfrom\UnityEngine.TilemapModule.dll_124944133298128526.movedfrom
Library\Bee\artifacts\movedfrom\UnityEngine.TLSModule.dll_7901382891524894635.movedfrom
Library\Bee\artifacts\movedfrom\UnityEngine.UIElementsModule.dll_18076547183882055007.movedfrom
Library\Bee\artifacts\movedfrom\UnityEngine.UIElementsNativeModule.dll_2865917384860803926.movedfrom
Library\Bee\artifacts\movedfrom\UnityEngine.UIModule.dll_4844233037604236504.movedfrom
Library\Bee\artifacts\movedfrom\UnityEngine.UmbraModule.dll_16398767902053064825.movedfrom
Library\Bee\artifacts\movedfrom\UnityEngine.UNETModule.dll_6271844284119532668.movedfrom
Library\Bee\artifacts\movedfrom\UnityEngine.UnityAnalyticsModule.dll_1616353215753142277.movedfrom
Library\Bee\artifacts\movedfrom\UnityEngine.UnityConnectModule.dll_17709954489770082105.movedfrom
Library\Bee\artifacts\movedfrom\UnityEngine.UnityCurlModule.dll_12044294139006266113.movedfrom
Library\Bee\artifacts\movedfrom\UnityEngine.UnityTestProtocolModule.dll_2252114221811253231.movedfrom
Library\Bee\artifacts\movedfrom\UnityEngine.UnityWebRequestAssetBundleModule.dll_12202809194931019414.movedfrom
Library\Bee\artifacts\movedfrom\UnityEngine.UnityWebRequestAudioModule.dll_7085981634481058138.movedfrom
Library\Bee\artifacts\movedfrom\UnityEngine.UnityWebRequestModule.dll_1847508921905248608.movedfrom
Library\Bee\artifacts\movedfrom\UnityEngine.UnityWebRequestTextureModule.dll_12532402411585607279.movedfrom
Library\Bee\artifacts\movedfrom\UnityEngine.UnityWebRequestWWWModule.dll_356849925414598315.movedfrom
Library\Bee\artifacts\movedfrom\UnityEngine.VehiclesModule.dll_9061195593783416187.movedfrom
Library\Bee\artifacts\movedfrom\UnityEngine.VFXModule.dll_17187409975020755224.movedfrom
Library\Bee\artifacts\movedfrom\UnityEngine.VideoModule.dll_10216689361175367851.movedfrom
Library\Bee\artifacts\movedfrom\UnityEngine.VirtualTexturingModule.dll_5499595655140418529.movedfrom
Library\Bee\artifacts\movedfrom\UnityEngine.VRModule.dll_10812107849209426512.movedfrom
Library\Bee\artifacts\movedfrom\UnityEngine.WindModule.dll_4229623753042677100.movedfrom
Library\Bee\artifacts\movedfrom\UnityEngine.XRModule.dll_14468682220930432942.movedfrom